…
Let’s check the data from *Mycteroperca* genus.

``` r
d3 %>% 
        filter(str_detect(Species, "Mycteroperca")) %>% 
        select(Species, a, b, trophic_level)
```

    ## # A tibble: 34 x 4
    ##    Species                         a     b trophic_level
    ##    <chr>                       <dbl> <dbl>         <dbl>
    ##  1 Mycteroperca acutirostris 0.00772  3             4.34
    ##  2 Mycteroperca acutirostris 0.013    3.03          4.34
    ##  3 Mycteroperca bonaci       0.00684  3.20          4.3 
    ##  4 Mycteroperca bonaci       0.0069   3.15          4.3 
    ##  5 Mycteroperca bonaci       0.00822  3.14          4.3 
    ##  6 Mycteroperca bonaci       0.0113   3.05          4.3 
    ##  7 Mycteroperca bonaci       0.0223   3.11          4.3 
    ##  8 Mycteroperca bonaci       0.146    2.55          4.3 
    ##  9 Mycteroperca cidi         0.0173   3.04          4.34
    ## 10 Mycteroperca fusca        0.00941  3             4.34
    ## # ... with 24 more rows
…
